{
  "editor": [
    {
      "icon": "",
      "key": "settings",
      "header": "Settings",
      "disabled": false,
      "fields": [
        {
          "key": "bgImg",
          "header": "App Background",
          "type": "image"
        },
        {
          "key": "fontName",
          "header": "App Font Name (Google Fonts)",
          "type": "text"
        },
        {
          "key": "firstImage",
          "header": "First Screen Image",
          "type": "image"
        },
        {
          "key": "btnText",
          "header": "Button Text",
          "type": "text"
        },
        {
          "key": "btnBackground",
          "header": "Button Background",
          "type": "color"
        },
        {
          "key": "btnFontColor",
          "header": "Button Font Color",
          "type": "color"
        },
        {
          "key": "clicks",
          "header": "Clicks Required",
          "type": "range",
          "options": {
            "minValue": 1,
            "maxValue": 100,
            "stepSize": "1"
          }
        },
        {
          "key": "captionTitle",
          "header": "Caption Title",
          "type": "text"
        },
        {
          "key": "captionColor",
          "header": "Caption Font color",
          "type": "color"
        },
        {
          "key": "secondImage",
          "header": "Second Screen Image",
          "type": "image"
        },
        {
          "key": "secondText",
          "header": "Second Screen Text",
          "type": "text"
        },
        {
          "key": "secondTextColor",
          "header": "Second Screen Text Color",
          "type": "color"
        },
        {
          "key": "sound",
          "header": "Second Screen Sound",
          "type": "sound"
        },
        {
          "key": "soundPlayed",
          "header": "Sound On/Off",
          "type": "boolean"
        }
      ]
    }
  ],
  "config": {
    "settings": {
      "bgImg": "./assets/bg1.jpg",
      "fontName": "Cinzel",
      "firstImage": "./assets/bg4.jpg",
      "btnText": "Tap Me",
      "btnBackground": "#aae",
      "btnFontColor": "#000",
      "clicks": 5,
      "captionTitle": "See a Surprize",
      "captionColor": "#fd6",
      "secondImage": "./assets/bg3.jpg",
      "secondText": "Surprize You Are on the Second Screen",
      "secondTextColor": "#fd6",
      "sound": "./assets/music.mp3",
      "soundPlayed": true
    }
  }
}
